#	key	type	break_keywords	value 
	GIẤY ĐĂNG KÝ KIÊM HỢP ĐỒNG MỞ & SỬ DỤNG TÀI KHOẢN THANH TOÁN, PHÁT HÀNH	block	I. THÔNG TIN KHÁCH HÀNG;Họ và tên (Đồng thời là tên tài khoản thanh toán)	
	Ngày	pt	Kính gửi	
	Kính gửi_Chi nhánh/Văn Phòng giao dịch	pt		
	I. THÔNG TIN KHÁCH HÀNG; Họ và tên (Đồng thời là tên tài khoản thanh toán)	block	II. ĐĂNG KÝ MỞ TÀI KHOẢN THANH TOÁN;Loại tài khoản; Tài khoản thanh toán Autolink	
	Họ và tên (Đồng thời là tên tài khoản thanh toán)	pt	Giới tính 	
	Giới tính 	cb	Số CMND/HC/CCCD	Nam;Nữ
	Số CMND/HC/CCCD	pt	Ngày cấp 	
	Ngày cấp_idcard 	pt	nơi cấp 	
	nơi cấp_idcard	pt	Ngày sinh	
	Ngày sinh_idcard	pt	Nơi sinh	
	Nơi sinh_idcard	pt	Quốc tịch	
	Quốc tịch	pt	Đối tượng	
	Đối tượng	cb	Số thị thực nhập cảnh/giấy tờ chứng minh được miện thị thực nhập cảnh 	Cư trú; Không cư trú
	Số thị thực nhập cảnh/giấy tờ chứng minh được miện thị thực nhập cảnh 	pt	Ngày cấp 	
	Ngày cấp_visa	pt	Ngày hết hạn 	
	Ngày hết hạn_visa 	pt	Nơi cấp 	
	Nơi cấp_visa 	pt	Địa chỉ nơi ở hiện tại 	
	Địa chỉ nơi ở hiện tại 	pt	Phường/xã	
	Phường/xã_current	pt	Quận/huyện	
	Quận/huyện_current	pt	Tỉnh/TP	
	Tỉnh/TP_current	pt	Địa chỉ thường trú 	
	Địa chỉ thường trú 	pt	Phường/xã	
	Phường/xã_origin	pt	Quận/huyện	
	Quận/huyện_origin	pt	Tỉnh/TP	
	Tỉnh/TP_origin	pt	Địa chỉ nơi đăng ký cư trú ở nước ngoài 	
	Địa chỉ nơi đăng ký cư trú ở nước ngoài 	pt	Điện thoại di động, Email	
	Điện thoại di động, Email	pt	Cơ quan công tác	
	Cơ quan công tác	pt	Địa chỉ cơ quan công tác 	
	Địa chỉ cơ quan công tác 	pt	Nghề nghiệp	
	Nghề nghiệp	pt	Chức vụ	
	Chức vụ	pt	Thu nhập trung bình năm(triệu đồng)	
	Thu nhập trung bình năm(triệu đồng)	cb	Trình độ học vấn	<54;54-<90;90-<180;180-<360;360-<540;540-900;900
	Trình độ học vấn	cb	Tình trạng hôn nhân	Trung học cơ sở;Trung học phổ thông;Chứng chỉ nghề; Cao đằng; Đại học;Sau đại học
	Tình trạng hôn nhân	cb	Mục đích khác hàng trong mối quan hệ với Vpbank	Độc thân;Đã kết hôn; Khác (xin ghi rõ)
	Mục đích khác hàng trong mối quan hệ với Vpbank	cb	Khách hàng có phải là người nhận ủy thác	Nhận lương; Thánh toán, chuyển tiền quốc tế;Các mục đích khác phụ vụ đời sống; Quản lý dòng tiền;Thanh toán, chuyển tiền trong nước;Khác(xin ghi rõ)
	Khách hàng có phải là người nhận ủy thác	cb	Khách hàng có chủ sở hữu hưởng lợi khác không 	Không; Có
	Khách hàng có chủ sở hữu hưởng lợi khác không 	cb	Quý khách hàng có thuộc một trong các đối tượng sau không	Không; Có
	Quý khách hàng có thuộc một trong các đối tượng sau không	cb		Không; Có
	II. ĐĂNG KÝ MỞ TÀI KHOẢN THANH TOÁN;Loại tài khoản; Tài khoản thanh toán Autolink	block	III. ĐĂNG KÝ PHÁT HÀNH THẺ GHI NỢ;Loại thẻ	
	Loại tài khoản; Tài khoản thanh toán Autolink	cb	Gói tài khoản	Tài khoản thanh toán Autolink; Tài khoản thanh toán VPSuper; Khác
	Gói tài khoản	cb	Loại tiền 	Gói tài khoản thanh toán Vsuper;Gói tài khoản thanh toán chuẩn;Gói tài khoản nhận lương; Gói tài khoản VPBank Staff
	Loại tiền 	cb		VND;USD;Khác
	III. ĐĂNG KÝ PHÁT HÀNH THẺ GHI NỢ;Loại thẻ	block	"IV. ĐĂNG KÝ SỬ DỤNG DICH VỤ NGÂN HÀNG ĐIÊN TỬ (""DV NHĐT"");Đăng ký sử dụng dịch vụ Vpbank Online;Đăng ký sử dụng dịch vụ Vpbank Online Áp dụng cho khách hàng chưa sử dụng dịch vụ VPbank online"	
	Loại thẻ 	cb	Số tài khoản liên kết với thẻ	Thẻ nội địa; Platinum Master Card; VNA Platinum mastercard; Diamon Platinum Debit; Cashback;VISA Platinum Travel;Thẻ khác
	Số tài khoản liên kết với thẻ	pt	Mã GLP	
	Mã GLP	pt	Tên in trên Thẻ	
	Tên in trên Thẻ	pt	Thông tin kích hoạt thẻ 	
	Thông tin kích hoạt thẻ 	pt	Câu hỏi bảo mật 	
	Câu hỏi bảo mật 	cb	Đăng ký nhận thẻ	Họ tên mẹ;Tên trường tiểu học
	Đăng ký nhận thẻ	cb		Tại chi nhanh phát hành;Tại địa chỉ cơ quan của Khách hàng nêu tại mục I của Giấy đăng ký kiêm Hợp đồng
	"IV. ĐĂNG KÝ SỬ DỤNG DICH VỤ NGÂN HÀNG ĐIÊN TỬ (""DV NHĐT"");Đăng ký sử dụng dịch vụ Vpbank Online;Đăng ký sử dụng dịch vụ Vpbank Online Áp dụng cho khách hàng chưa sử dụng dịch vụ VPbank online"	block	V. XÁC NHẬN VÀ CAM KẾT CỦA KHÁCH HÀNG;Các thông tin nêu trên là chính xác, cập nhật, đầy đủ và đồng ý để VPbank xác thực các thông tin nêu trên từ  	
	Đăng ký sử dụng dịch vụ Vpbank Online	pt	Gói dịch vụ	
	Gói dịch vụ	cb	Tên truy cập	Gói cao cấp; Gói tiêu chuẩn; Gói linh hoạt; Gói truy vấn;Gói người nước ngoài 
	Tên truy cập	pt	Trường hợp Khách hàng không đăng ký hoặc thông tin đăng ký của Khách hàng bị trùng khớp, VPBank mặc định	
	Hình thức nhận mã khóa bị mật dùng một lần (OTP)		Đăng ký sử dụng dịch vụ PhoneBanking	
	Đăng ký sử dụng dịch vụ PhoneBanking		Đăng ký sử dụng dịch vụ khác	
	Đăng ký sử dụng dịch vụ khác	cb		VPBank SMS
	V. XÁC NHẬN VÀ CAM KẾT CỦA KHÁCH HÀNG;Các thông tin nêu trên là chính xác, cập nhật, đầy đủ và đồng ý để VPbank xác thực các thông tin nêu trên từ  	block	VI. CHỮ KÝ CỦA KHÁCH HÀNG(ĐỒNG THỜI LÀ CHỮ KÝ MẪU) VÀ THÔNG TIN ĐĂNG KÝ;Điện thoại di động 	
	VI. CHỮ KÝ CỦA KHÁCH HÀNG(ĐỒNG THỜI LÀ CHỮ KÝ MẪU) VÀ THÔNG TIN ĐĂNG KÝ;Điện thoại di động 	block	VII. PHẦN XÁC NHẬN CỦA NGÂN HÀNG;Kết quả xác định trạng thái FATCA của Khách hàng 	
	Điện thoại di động 	pt	Email	
	Email	pt		
	VII. PHẦN XÁC NHẬN CỦA NGÂN HÀNG;Kết quả xác định trạng thái FATCA của Khách hàng 	block		
	Kết quả xác định trạng thái FATCA của Khách hàng 	cb	Phần xác nhận của ngân hàng về dịch vụ/sản phẩm 	Không phải là người Hoa Kỳ; Người Hoa Kỳ xác định; Chủ tài khoản chống đối là Người Hoa Kỳ; Chủ tài khoản chống đối có dấu hiệu Hoa Kỳ;Chủ tài khoản chống đối không có đấu hiệu Hoa Kỳ
