A
B
C
D
E
F
G
H
I
J
K
L
M
N
O
P
Q
R
S
T
U
V
W
X
Y
Z
a
b
c
d
e
f
g
h
i
j
k
l
m
n
o
p
q
r
s
t
u
v
w
x
y
z
|
0
1
2
3
4
5
6
7
8
9
Ă
Â
Ê
Ô
Ơ
Ư
Á
Ắ
Ấ
É
Ế
Í
Ó
Ố
Ớ
Ú
Ứ
Ý
À
Ằ
Ầ
È
Ề
Ì
Ò
Ồ
Ờ
Ù
Ừ
Ỳ
Ả
Ẳ
Ẩ
Đ
Ẻ
Ể
Ỉ
Ỏ
Ổ
Ở
Ủ
Ử
Ỷ
Ã
Ẵ
Ẫ
Ẽ
Ễ
Ĩ
Õ
Ỗ
Ỡ
Ũ
Ữ
Ỹ
Ạ
Ặ
Ậ
Ẹ
Ệ
Ị
Ọ
Ộ
Ợ
Ụ
Ự
Ỵ
ă
â
ê
ô
ơ
ư
á
ắ
ấ
é
ế
í
ó
ố
ớ
ú
ứ
ý
à
ằ
ầ
è
ề
ì
ò
ồ
ờ
ù
ừ
ỳ
ả
ẳ
ẩ
đ
ẻ
ể
ỉ
ỏ
ổ
ở
ủ
ử
ỷ
ã
ẵ
ẫ
ẽ
ễ
ĩ
õ
ỗ
ỡ
ũ
ữ
ỹ
ạ
ặ
ậ
ẹ
ệ
ị
ọ
ộ
ợ
ụ
ự
ỵ
\
'
*
:
,
@
.
-
(
#
%
"
)
/
~
!
^
&
_
+
=
{
}
[
]
\
;
<
>
?
※
”
$
€
£
¥
₫
°
²
™
ā
–